Tarea 1
…
Con la ayuda del paquete dplyr, realice lo siguiente:

Con un gráfico muestre la evolución del consumo de energía renovable
para los países Canada, Paraguay, Perú y China. Debe mostrar tanto el
gráfico como la tabla de datos con la que se realizó el gráfico.

datos.energia <- datos.tidy[datos.tidy$Indicador == "Consumo de energ\xeda renovable (% del consumo total de energ\xeda final)" &
                            datos.tidy$Pais %in% c("Canada", "Paraguay", "Peru", "China"), ]

datos.energia <- datos.energia[!is.na(datos.energia$Valor), ]

print(datos.energia)

## # A tibble: 104 × 4
##    Pais   Indicador                                                    Año Valor
##    <chr>  <chr>                                                      <dbl> <dbl>
##  1 Canada Consumo de energ�a renovable (% del consumo total de ener…  1990  22.0
##  2 Canada Consumo de energ�a renovable (% del consumo total de ener…  1991  22.2
##  3 Canada Consumo de energ�a renovable (% del consumo total de ener…  1992  21.9
##  4 Canada Consumo de energ�a renovable (% del consumo total de ener…  1993  21.8
##  5 Canada Consumo de energ�a renovable (% del consumo total de ener…  1994  21.7
##  6 Canada Consumo de energ�a renovable (% del consumo total de ener…  1995  21.9
##  7 Canada Consumo de energ�a renovable (% del consumo total de ener…  1996  21.6
##  8 Canada Consumo de energ�a renovable (% del consumo total de ener…  1997  21.3
##  9 Canada Consumo de energ�a renovable (% del consumo total de ener…  1998  21.5
## 10 Canada Consumo de energ�a renovable (% del consumo total de ener…  1999  21.7
## # ℹ 94 more rows
…
